<svg xmlns="http://www.w3.org/2000/svg" width="308" height="145" viewBox="0 0 308 145">
  <g id="Group_18" data-name="Group 18" transform="translate(308)">
    <ellipse id="Oval" cx="122.5" cy="10.5" rx="122.5" ry="10.5" transform="translate(-299 115)" fill="#000307" opacity="0.2"/>
    <g id="Group_58" data-name="Group 58">
      <path id="Fill_85" data-name="Fill 85" d="M-6.889,11.807c-18.791,17.069-32.627,8.044-32.627,8.044s-.54,13.3-.741,14.649-6.892,8.986-6.892,8.986S-43.018,45.7-43,46.417s-2.269,4.944-2.807,5.174S-57.753,48.375-58.57,47.3c-1.294-1.705,5.951-7.03,7.613-10.572S-52.618,18.1-52.618,18.1L-13.706,1.2S11.9-5.263-6.889,11.807" transform="translate(-191.885 82.398)" fill="#a2562e"/>
      <path id="Fill_86" data-name="Fill 86" d="M-47.128,10.415c.683-.6,1.1-.99,1.3-1.2.511-.315,1.03-.619,1.561-.9l.473-.223c1.179-.435,2.365-.855,3.566-1.229a71.457,71.457,0,0,1,8.4-2.077l.027,0c1.346-.117-2.013.163-.663.122,1.678-.027-.272-4.952,1.414-4.9,3.741,14.132,20.273,28.313,20.273,28.313S.1,28.544,0,30.716s-.259,5.6-.259,5.6-10.469,2.908-13.413,2.8-35.45-26.381-35.45-26.381-.177.03-.5.083c.818-.786,1.64-1.585,2.5-2.4" transform="translate(-68.648 79.901)" fill="#a2562e"/>
      <path id="Fill_87" data-name="Fill 87" d="M0,51.6l-.736-.543c-.485-.335-1.175-.877-2.077-1.494-1.786-1.28-4.336-3.066-7.375-5.159-1.511-1.043-3.152-2.171-4.884-3.365-1.714-1.193-3.524-2.449-5.392-3.749-3.709-2.615-7.605-5.427-11.363-8.364-1.883-1.461-3.716-2.974-5.488-4.488-1.747-1.538-3.48-3.041-5.037-4.6-.816-.748-1.539-1.55-2.284-2.31-.769-.741-1.409-1.548-2.1-2.292a56.111,56.111,0,0,1-3.557-4.472c-.567-.7-.972-1.44-1.434-2.119-.222-.344-.46-.674-.655-1.01s-.374-.666-.551-.988c-.769-1.27-1.3-2.449-1.786-3.433-.46-.986-.744-1.8-.983-2.359S-56.06,0-56.06,0s-.028.322-.077.924c-.017.3-.041.679-.066,1.122a8.934,8.934,0,0,0-.007,1.528,25.787,25.787,0,0,0,.481,4.133,19.145,19.145,0,0,0,.6,2.509,27.939,27.939,0,0,0,.9,2.72,38.772,38.772,0,0,0,2.795,5.793c.579.975,1.186,1.986,1.877,2.946.666.989,1.4,1.961,2.172,2.91.385.477.762.974,1.171,1.445s.835.925,1.257,1.39c.826.956,1.732,1.835,2.646,2.726a75.354,75.354,0,0,0,5.8,5.054c2.04,1.545,4.1,3.059,6.226,4.387,1.044.693,2.106,1.333,3.168,1.94,1.047.63,2.1,1.205,3.152,1.759a87.673,87.673,0,0,0,11.8,5.2c1.775.632,3.425,1.143,4.9,1.561s2.779.715,3.855.955,1.937.372,2.517.478.9.125.9.125" transform="translate(-214.216 14.149)" fill="#c7662e"/>
      <path id="Fill_88" data-name="Fill 88" d="M-103.717,83.751c1.873,18.576,15.429,23.741,15.429,23.741s11.511.242,11.4,2.541,1.091,5.554-.272,5.922-11.076,3.077-14.189,2.968-37.5-27.918-37.5-27.918-51.356,9.013-71.193-12.31c-12.342,18.244-47.617,13.535-47.617,13.535s-15.079,11.4-19.688,18.525c-1.375,2.125,3.381,2.9,3.546,4.5s-2.5,4.226-3.887,4.575-10.6-4-11.467-5.032c-1.407-1.67,1.184-3.405,2.6-5.281,3.946-5.223,13.889-13.8,13.327-26.743-.179-3.049,2.982-4.454,4.556-4.751,28.912-5.475,19.56-34.956,25.622-38.291,6.394-3.518,31.217-7.042,42.017-3.745s51.163,9.3,69.237-.817S-99.143,6.979-83.273,2.143-15.553,16.925-2.989,0C12.22,24.62-34.728,34.51-51.26,34.952S-82.778,61.989-82.778,61.989s-10.14,17.586-20.939,21.762" transform="translate(-7.444 10.82)" fill="#c7662e"/>
      <path id="Fill_89" data-name="Fill 89" d="M-12.519,12.5C-9.509,16.479-4.8,17.827-2,15.517S.637,8.114-2.369,4.14s-7.72-5.321-10.522-3.012-2.635,7.4.372,11.376" transform="translate(-68.648 11.652)" fill="#fffffe"/>
      <path id="Fill_90" data-name="Fill 90" d="M-6.642,6.066a3.707,3.707,0,0,0,5.227.619A3.764,3.764,0,0,0-.8,1.424,3.707,3.707,0,0,0-6.028.806a3.76,3.76,0,0,0-.614,5.26" transform="translate(-70.303 14.149)" fill="#4f2519"/>
      <path id="Fill_91" data-name="Fill 91" d="M-12.519,12.5C-9.509,16.478-4.8,17.827-2,15.518s2.635-7.4-.372-11.377-7.72-5.322-10.522-3.013-2.634,7.4.372,11.377" transform="translate(-55.415 6.658)" fill="#fffffe"/>
      <path id="Fill_92" data-name="Fill 92" d="M-6.642,6.066a3.706,3.706,0,0,0,5.227.618A3.761,3.761,0,0,0-.8,1.424,3.7,3.7,0,0,0-6.029.807a3.76,3.76,0,0,0-.614,5.259" transform="translate(-57.069 9.988)" fill="#4f2519"/>
      <path id="Fill_93" data-name="Fill 93" d="M0,9.975s-1.939,7.329-2.425,9.6C-19.167,12-32.106,23.015-32.355,25.325s-15.681-3.722-8.96-19.3S0,9.975,0,9.975" transform="translate(-95.115 6.658)" fill="#2c2017"/>
      <path id="Fill_94" data-name="Fill 94" d="M-17.369,8.74a8.713,8.713,0,0,0,8.684,8.739A8.712,8.712,0,0,0,0,8.74,8.712,8.712,0,0,0-8.684,0a8.712,8.712,0,0,0-8.684,8.74" fill="#2c2017"/>
      <path id="Fill_95" data-name="Fill 95" d="M-6.493,34.124c8.648-.471,6.971-9.582,4.52-9.26S-22.656,30.346-42.215,4.293c0,0,3.125-1.493,4.337-3.707-6.538-2.875-13.508,5.539-11.345,9.933C-32.883,36.537-10.02,33.5-6.493,34.124" transform="translate(-81.055 38.286)" fill="#449d7f"/>
      <path id="Fill_96" data-name="Fill 96" d="M-9.506,7.491A46.342,46.342,0,0,0,0,6.447l-.5-2.1C-.672,4.383-18.31,8.35-21.987,0l-2,.866c2.357,5.351,8.844,6.625,14.479,6.625" transform="translate(-45.49 39.118)" fill="#2c2017"/>
    </g>
  </g>
</svg>
