<svg id="Group_83" data-name="Group 83" xmlns="http://www.w3.org/2000/svg" width="231" height="260" viewBox="0 0 231 260">
  <path id="Fill_1" data-name="Fill 1" d="M28.287,26.548a21.782,21.782,0,0,1-5.569,5.642c-3.055,2.03-7.289-.169-9.98-2.068A30.57,30.57,0,0,1,.363,11.549,10.851,10.851,0,0,1,.414,5.811,7.177,7.177,0,0,1,6.233,1.424c5.984-.978,9.439,3.531,12.06,8.118-.169-.3,1.514-2.9,1.724-3.286a18.5,18.5,0,0,1,2.191-3.274C24.755.077,28.592-1.069,31.945,1.2c2.8,1.9,3.282,5.752,2.974,8.867-.448,4.546-2.371,8.718-4.4,12.748a29.875,29.875,0,0,1-2.235,3.733" transform="translate(196 3)" fill="#d23131"/>
  <path id="Fill_2" data-name="Fill 2" d="M17.781,16.895a13.823,13.823,0,0,1-3.5,3.59c-1.922,1.292-4.582-.107-6.273-1.316A19.467,19.467,0,0,1,.229,7.349,7,7,0,0,1,.258,3.7,4.528,4.528,0,0,1,3.919.906C7.679.284,9.854,3.153,11.5,6.072c-.106-.19.954-1.847,1.086-2.091A11.713,11.713,0,0,1,13.959,1.9C15.562.049,17.972-.68,20.081.764c1.764,1.21,2.062,3.66,1.867,5.643a23.581,23.581,0,0,1-2.762,8.113,19.111,19.111,0,0,1-1.4,2.376" transform="translate(173 47)" fill="#d23131"/>
  <path id="Fill_36" data-name="Fill 36" d="M76.742,39.113c-4.9-1.073-11.6-.318-15.362-.052-7.307.522-14.577,1.875-21.922,1.742-6.79-.126-19.5.658-23.039-6.832-2.788-5.9-1.419-13.112,2.222-18.32a19.258,19.258,0,0,1,9.809-7.586,11.97,11.97,0,0,0,3.6-1.372,4.406,4.406,0,0,0,1.388-5.045c-1.2-2.482-2.9-1.6-5.212-.928a39.07,39.07,0,0,0-13.1,6.78A39.3,39.3,0,0,0,.273,32.392C-1.165,42.35,3.113,49.27,12.358,53.439c5.688,2.563,11.989,3.41,18.209,3.928A160.951,160.951,0,0,0,78.5,54.552c6.331-1.394,7.244-9.5,2.512-13.556a9.748,9.748,0,0,0-4.267-1.883" transform="translate(0 202)" fill="#d38983"/>
  <path id="Fill_37" data-name="Fill 37" d="M107.022,117.5c1.295-2,1.486-4.343-.55-6.875a7.189,7.189,0,0,0-6.479-2.518c-.012-5.331-1.412-9.989-1.765-15.206-.943-13.943-3.323-29.034-2.6-43.2.728-14.227-.894-28.587,2.176-42.72.051-.237-10.642-2.4-11.579-2.573L62.441,0c2.509,3.246,1.251,8.82.076,12.242-4.78,13.918-17.374,23.935-28.265,32.875-11.728,9.628-21.9,21.528-27.965,35.552A72.166,72.166,0,0,0,.616,102.857c-.632,7.094-1.72,16.483,2.435,22.585a10.678,10.678,0,0,0,3.959,3.706,14.9,14.9,0,0,0,5.063,1.151c7.137.759,13.7,1.947,20.979,1.655,10.669-.429,21.612-.755,32.2-2.159,1.86-.244,20.695-4.217,18.043-7.786,3.264,4.395,9.654,3.106,14.1,1.759,3.117-.948,7.651-3.21,9.623-6.264" transform="translate(23 100)" fill="#daad94"/>
  <path id="Fill_38" data-name="Fill 38" d="M0,0C17.029,4.285,29.087,22.269,27.009,39.716c-.62,5.2-5.985,9.864-9.755,12.99-3.749,3.108-6.775,5.52-11.6,6.921a110.641,110.641,0,0,1,14.1-.721C26.19,59,28.345,60.27,29.462,65c1.789-.971,2.739-2,2-3a6.718,6.718,0,0,0,.539.633,8.006,8.006,0,0,0-3.965-4.961c-3.02-1.6-10.832-1.578-13.874.07,10.2-5.52,15.861-10.073,16.063-22.2C30.555,15.579,17.837,4.49,0,0" transform="translate(75 160)" fill="#be7b77"/>
  <path id="Fill_39" data-name="Fill 39" d="M18.674,0q.343,8.215.687,16.427c.2,4.882,4.59,48.21,5.879,48.093A18.584,18.584,0,0,1,34.556,66.1c1.461.665,2.952,1.671,3.348,3.225a4.31,4.31,0,0,1-1.969,4.349,12.7,12.7,0,0,1-4.758,1.686c-4.939,1.036-12.12,2.825-16.957.492C8.649,73.174,7.526,63.245,6.126,57.9c-2-7.637-2.385-15.575-3.35-23.381C1.4,23.373.6,12.173,0,.966L18.674,0" transform="translate(95 149)" fill="#daad94"/>
  <path id="Fill_40" data-name="Fill 40" d="M35.093,70.669a9.25,9.25,0,0,0-3.626-1.236c-2.189-.376-5.4,1.037-7.028-.841-1.425-1.641-.793-4.168-1.178-6.138C22.022,56.129,21.7,49.887,20.505,43.58c-.59-3.11-.4-6.249-.872-9.325a117.462,117.462,0,0,1-1.525-19.288c.03-2.6-.1-5.2-.218-7.809C17.835,5.932,16.776.984,17.845.143a.957.957,0,0,1,1.323.388c1.1,1.871.566,4.674.735,6.725.326,3.965.25,7.949.416,11.918.2,4.9,4.6,48.411,5.892,48.293a18.6,18.6,0,0,1,9.338,1.59c1.465.668,2.959,1.678,3.355,3.239a4.331,4.331,0,0,1-1.974,4.367,12.717,12.717,0,0,1-4.769,1.693c-4.95,1.04-12.148,2.837-17,.494C9.582,76.158,8.456,66.188,7.053,60.817c-2-7.669-2.391-15.64-3.357-23.479-.762-6.175-1.347-12.372-1.819-18.576C1.6,15.125.942,11.536.538,7.917.378,6.475-.316,3.86.17,2.477.669,1.055,1.509.745,2,2.735c.93,3.773.643,7.635,1.033,11.46C4.609,29.655,6.325,45,9.332,60.267c.792,4.021,1.6,8.986,3.928,12.427a9.141,9.141,0,0,0,4.982,3.8,14.8,14.8,0,0,0,4.708.258A47.155,47.155,0,0,0,33.41,75.409c1.348-.384,3.217-1.653,2.736-3.335a2.63,2.63,0,0,0-1.054-1.405" transform="translate(94 146)" fill="#be7b77"/>
  <path id="Fill_41" data-name="Fill 41" d="M41,17.589a8.477,8.477,0,0,0-2.379-4.708c-2.5-2.821-5.837-5.035-4.282-9.58A15.764,15.764,0,0,0,35.113,0C27.859.535,20.64,1.858,13.347,1.724c-2.852-.056-6.741.045-10.565-.36a15.6,15.6,0,0,0-1.549,3.9C.218,8.893-.449,12.739.362,16.418a13.742,13.742,0,0,0,.46,1.6q1.79.2,3.581.349A169.239,169.239,0,0,0,41,17.589" transform="translate(26 241)" fill="#402325"/>
  <path id="Fill_42" data-name="Fill 42" d="M35,16.758c-.042-2.894-1.4-5.579-2.726-8.146-1.6-3.1-3.348-6.33-5.893-8.612C17,8.713,8.993,19.006,3.9,30.8A73.688,73.688,0,0,0,0,42.4a7.457,7.457,0,0,0,1.318.431,7.49,7.49,0,0,0,7.231-2.47c1.921-2.31,2.319-5.654,4.4-7.823C15.38,30,19.274,29.826,22.708,29.1,28.862,27.787,35.09,23.058,35,16.758" transform="translate(25 150)" fill="#542f31"/>
  <path id="Fill_43" data-name="Fill 43" d="M37.016,11.794a9.408,9.408,0,0,0,.856-5.767L5.415,0c2.515,3.258,1.254,8.851.076,12.285A43.247,43.247,0,0,1,0,22.893c1.936,4.856,4.61,9.8,10.85,9.026,3.888-.483,6.934-3.935,7.952-7.729.424-1.58.6-3.321,1.67-4.561,1.8-2.1,5.048-1.712,7.789-2.034a11.357,11.357,0,0,0,8.755-5.8" transform="translate(80 100)" fill="#542f31"/>
  <path id="Fill_44" data-name="Fill 44" d="M31.652,48.582c1.835-2.222,4.6-3.088,6.246-5.931a33.132,33.132,0,0,0,4.591-14.67c.094-1.871-1.011-4.313-.773-5.907.275-1.842,2.675-3.163,2.23-5.163a3.689,3.689,0,0,0-1.392-1.845A70.077,70.077,0,0,0,22.358,3C18.184,1.4,11.693-1.751,7.489,1.243,3.7,3.944,3.309,8.42,2.3,12.43A86.292,86.292,0,0,0,0,32.932,93.593,93.593,0,0,0,2.106,54.62C3.623,60.953,6.964,65.586,10.279,71c1.016-6.434,7.337-7.688,11.987-11.149,4.548-3.385,5.909-7.059,9.386-11.269" transform="translate(46 23)" fill="#d38983"/>
  <path id="Fill_45" data-name="Fill 45" d="M.09,11.964C.018,8.931-.373,5.04,1.322,2.346,3.692-1.423,8.844.336,12.39.935A63.075,63.075,0,0,1,37.214,11.278l.614.418c10.245,6.987,19.853,15.976,25.282,27.33.31.651.61,1.309.89,1.974-7.483-3.6-17.574-3.42-25.829-4.135a68.821,68.821,0,0,0-16.282.444,56.7,56.7,0,0,0-7.941,1.785c-1.935.588-3.42,1.579-5.234.211a17.037,17.037,0,0,1-3.276-4.33A36.389,36.389,0,0,1,.5,18.3C.384,16.624.145,14.334.09,11.964" transform="translate(92)" fill="#d38983"/>
  <path id="Fill_46" data-name="Fill 46" d="M84.874,92.951A68.67,68.67,0,0,0,95.19,86.324c14.869-11.2,26.6-28.759,23.226-48.047C115.3,20.452,101.27,3.175,82.567.62c-24.348-3.327-52.6,7.017-69.733,24.53A47.368,47.368,0,0,0,3.028,39.541,37.181,37.181,0,0,0,4.81,72.521c6.559,11.77,16.425,22.37,29.2,27.393,17.048,6.7,35.5,1.623,50.865-6.963" transform="translate(49 22)" fill="#daad94"/>
  <path id="Fill_47" data-name="Fill 47" d="M8.581,18A18.85,18.85,0,0,1,.448,15.689a.8.8,0,0,1-.361-1.076.816.816,0,0,1,1.091-.356c4.737,2.344,8.3,2.755,10.876,1.261a7.417,7.417,0,0,0,3.31-6.736,13.3,13.3,0,0,0-3.18-7.489A.794.794,0,0,1,12.329.169.822.822,0,0,1,13.471.31a14.844,14.844,0,0,1,3.517,8.395A8.919,8.919,0,0,1,12.88,16.9a8.4,8.4,0,0,1-4.3,1.1" transform="translate(67 59)" fill="#1b1a19"/>
  <path id="Fill_48" data-name="Fill 48" d="M9.464,14A15.792,15.792,0,0,1,.327,11.025a.788.788,0,1,1,.925-1.276,13.447,13.447,0,0,0,12.815,1.773c4.182-1.78,6.927-6.44,6.25-10.61A.788.788,0,0,1,21.874.66c.8,4.933-2.289,10.225-7.187,12.31A13.338,13.338,0,0,1,9.464,14" transform="translate(114 35)" fill="#1b1a19"/>
  <path id="Fill_49" data-name="Fill 49" d="M19.91,15.683C20.658,10.733,16.638,4.259,11.747,0A94.792,94.792,0,0,0,0,5.106a25.939,25.939,0,0,0,4.786,9.738c3.7,4.789,13.643,10.637,15.124.84" transform="translate(82 28)" fill="#542f31"/>
  <path id="Fill_50" data-name="Fill 50" d="M6.519,19.087a11.081,11.081,0,0,0,12.8,1.566c5.623-3.071,3.838-9.924.969-14.2C16.76,1.193,12.2-.788,5.745.279A6.321,6.321,0,0,0,2.32,1.591c-5.585,5.318.158,13.576,4.2,17.5" transform="translate(110 74)" fill="#d23131"/>
  <path id="Fill_51" data-name="Fill 51" d="M14.828,9.82c3.758,3.532,9.832,5.5,14.811,4.326,5.17-1.22,5.74-8.254,1.728-11.191C26.365-.707,19.8-.4,14.231.869a16.4,16.4,0,0,0-2.616.778C5.469,4.177-4.034,18.884,1.847,25.138c2.066,2.2,6.235,2.276,8.8,1.14,6.787-3.013,6.768-12.293,3.117-17.577a13.789,13.789,0,0,0,1.067,1.12" transform="translate(100 65)" fill="#f7ecb4"/>
  <path id="Fill_52" data-name="Fill 52" d="M.292,8.109a4.309,4.309,0,0,0,.721,4.38C2.225,13.78,4.2,14.005,5.985,14a14.376,14.376,0,0,0,4.93-.719,9.1,9.1,0,0,0,5.46-5.662C20.482-5.235,3.115.439.292,8.109" transform="translate(102 62)" fill="#181917"/>
  <path id="Fill_53" data-name="Fill 53" d="M1.986.847C1.534-1.594-1.548,2.02.994,2A1.036,1.036,0,0,0,1.986.847" transform="translate(106 79)" fill="#b29c7a"/>
  <path id="Fill_54" data-name="Fill 54" d="M1.986.847C1.534-1.594-1.548,2.02.994,2A1.036,1.036,0,0,0,1.986.847" transform="translate(103 83)" fill="#b29c7a"/>
  <path id="Fill_55" data-name="Fill 55" d="M1.986.847C1.534-1.594-1.548,2.02.994,2A1.036,1.036,0,0,0,1.986.847" transform="translate(107 86)" fill="#b29c7a"/>
  <path id="Fill_56" data-name="Fill 56" d="M1.263,1.958c2.311-.8-1.58-3.433-1.242-.85a1.008,1.008,0,0,0,1.242.85" transform="translate(127 69)" fill="#b29c7a"/>
  <path id="Fill_57" data-name="Fill 57" d="M1.186,1.962A1.017,1.017,0,0,0,1.961.7,1.008,1.008,0,0,0,.01,1.176a.886.886,0,0,0,1.176.786" transform="translate(129 74)" fill="#b29c7a"/>
  <path id="Fill_58" data-name="Fill 58" d="M1.21,1.922C2.138,1.6,2.283.817,1.46.245-.235-.934-.626,2.556,1.21,1.922" transform="translate(122 70)" fill="#b29c7a"/>
  <path id="Fill_59" data-name="Fill 59" d="M7.243,10.7a6.458,6.458,0,0,1-4.575-.244C.505,9.312-.766,6.68.508,4.544,1.968,2.1,6.838-.583,9.983.111c5.353,1.182,5.033,6.482.946,9.014A13.617,13.617,0,0,1,7.243,10.7" transform="translate(64 83)" fill="#d38782"/>
  <path id="Fill_60" data-name="Fill 60" d="M7.3,11.656a6,6,0,0,1-4.585-.219C.539,10.211-.764,7.362.489,5.027,1.924,2.352,6.773-.612,9.931.11c5.375,1.231,5.111,7,1.046,9.791A13.1,13.1,0,0,1,7.3,11.656" transform="translate(140 39)" fill="#d38782"/>
  <path id="Fill_61" data-name="Fill 61" d="M.613,21a.628.628,0,0,1-.238-.047.591.591,0,0,1-.327-.781A142.242,142.242,0,0,1,10.866.28a.625.625,0,0,1,.846-.189.588.588,0,0,1,.195.822A140.953,140.953,0,0,0,1.178,20.634.614.614,0,0,1,.613,21" transform="translate(122 50)" fill="#1b1a19"/>
  <path id="Fill_62" data-name="Fill 62" d="M.592,16a.6.6,0,0,1-.418-.168.561.561,0,0,1,0-.811l.708-.688c2.314-2.255,4.709-4.586,7.265-6.64q.941-.758,1.872-1.517A91.77,91.77,0,0,1,18.08.1.605.605,0,0,1,18.9.255a.564.564,0,0,1-.165.8,89.315,89.315,0,0,0-7.958,6Q9.845,7.815,8.9,8.576c-2.512,2.02-4.886,4.332-7.182,6.567l-.708.688A.6.6,0,0,1,.592,16" transform="translate(128 53)" fill="#1b1a19"/>
  <path id="Fill_63" data-name="Fill 63" d="M.585,9A.583.583,0,0,1,.1,8.742a.606.606,0,0,1,.149-.832A64.613,64.613,0,0,1,15.217.036a.58.58,0,0,1,.748.36.6.6,0,0,1-.352.764A63.525,63.525,0,0,0,.917,8.894.568.568,0,0,1,.585,9" transform="translate(130 66)" fill="#1b1a19"/>
  <path id="Fill_64" data-name="Fill 64" d="M.608,12a.627.627,0,0,1-.423-.161.544.544,0,0,1-.014-.8A51.36,51.36,0,0,1,8.822,4.158a33.051,33.051,0,0,1,5.3-2.582A42.832,42.832,0,0,1,19.24.018a.615.615,0,0,1,.741.41.567.567,0,0,1-.437.693,40.453,40.453,0,0,0-4.954,1.5,31.881,31.881,0,0,0-5.1,2.483,50.055,50.055,0,0,0-8.445,6.719A.631.631,0,0,1,.608,12" transform="translate(84 84)" fill="#1b1a19"/>
  <path id="Fill_65" data-name="Fill 65" d="M.587,3A.588.588,0,0,1,.393,1.857,32.781,32.781,0,0,1,8.471.442C9.145.382,9.822.322,10.5.251A49.7,49.7,0,0,1,16.617.009a27.9,27.9,0,0,1,5.929.533.588.588,0,0,1,.439.705.579.579,0,0,1-.705.44,26.926,26.926,0,0,0-5.681-.5,48.5,48.5,0,0,0-5.973.235c-.686.072-1.37.133-2.05.193A31.408,31.408,0,0,0,.781,2.967.6.6,0,0,1,.587,3" transform="translate(84 79)" fill="#1b1a19"/>
  <path id="Fill_66" data-name="Fill 66" d="M.548,15a.5.5,0,0,1-.128-.017.586.586,0,0,1-.4-.7c.2-.9.37-1.8.535-2.7.258-1.4.525-2.845.939-4.281A65.063,65.063,0,0,1,3.951.348a.538.538,0,0,1,.722-.3.6.6,0,0,1,.28.77A64.064,64.064,0,0,0,2.538,7.641c-.4,1.378-.658,2.8-.911,4.165-.169.914-.339,1.829-.547,2.747A.555.555,0,0,1,.548,15" transform="translate(103 87)" fill="#1b1a19"/>
  <path id="Fill_67" data-name="Fill 67" d="M3.972,2.336a1.048,1.048,0,0,1,.023.13.462.462,0,0,1-.108.395c-.228.228-.685.138-1.009,0C2.188,2.574-1.129.871.4.087A1.326,1.326,0,0,1,1.729.373c.718.582,2.028,1.082,2.243,1.963" transform="translate(144 44)" fill="#daad94"/>
  <path id="Fill_68" data-name="Fill 68" d="M3.856,3.876C3.481,4.359,2.489,3.3,1.9,2.859.814,2.028.038,1.477,0,.163A.945.945,0,0,1,.94.089,2.481,2.481,0,0,1,1.7.668c.653.65,2.371,1.726,2.3,2.716a.921.921,0,0,1-.142.492" transform="translate(146 42)" fill="#daad94"/>
  <path id="Fill_69" data-name="Fill 69" d="M2.984,4.391C2.87,3.54,1.537-1.08.19.234c-.812.792,1.205,3.542,1.7,4.246a1.281,1.281,0,0,0,.492.479.444.444,0,0,0,.586-.188.726.726,0,0,0,.02-.38" transform="translate(67 87)" fill="#daad94"/>
  <path id="Fill_70" data-name="Fill 70" d="M2.225.876C1.862.5,1.21-.13.538.024c-1.7.39,1.124,2.606,1.684,2.87a.717.717,0,0,0,.509.087A.449.449,0,0,0,3,2.523,2.411,2.411,0,0,0,2.225.876" transform="translate(70 86)" fill="#daad94"/>
</svg>
